[gd_scene load_steps=2 format=2]

[ext_resource path="res://scripts/debug_panel.gd" type="Script" id=1]


[node name="DebugPanel" type="Control"]
anchor_right = 1.0
anchor_bottom = 1.0
script = ExtResource( 1 )
__meta__ = {
"_edit_use_anchors_": false
}

[node name="FPSLabel" type="Label" parent="."]
margin_right = 40.0
margin_bottom = 14.0
text = "FPS: xx"
